


<---------------------------Excel Document:../case/APIAuto\ssgd_1000001.xlsx--------------------------->

<---------------------------Excel SheetName:ssgd_1000001--------------------------->


用例<2>实际结果与预期结果不一致:
Key:a.system.verifySwitch.status
Expected:0
Actual:value is not alive
-------



<---------------------------Excel Document:../case/APIAuto\ssgd_1000002.xlsx--------------------------->

<---------------------------Excel SheetName:ssgd_1000002--------------------------->




<---------------------------Excel Document:../case/interface.xls--------------------------->

<---------------------------Excel SheetName:Sheet1--------------------------->


用例<test_01>实际结果与预期结果不一致:
Key:code
Expected:0
Actual:10004001
-------

用例<test_02>实际结果与预期结果不一致:
Key:code
Expected:0
Actual:10004001
-------

用例<test_03>实际结果与预期结果不一致:
Key:code
Expected:0
Actual:10004001
-------

用例<test_04>实际结果与预期结果不一致:
Key:code
Expected:0
Actual:10004001
-------

用例<test_05>实际结果与预期结果不一致:
Key:code
Expected:0
Actual:10004001
-------

用例<test_06>实际结果与预期结果不一致:
Key:code
Expected:0
Actual:10004001
-------

用例<test_07>实际结果与预期结果不一致:
Key:code
Expected:0
Actual:10004001
-------

用例<test_08>实际结果与预期结果不一致:
Key:code
Expected:0
Actual:10004001
-------

用例<test_09>实际结果与预期结果不一致:
Key:code
Expected:0
Actual:10004001
-------

用例<test_10>实际结果与预期结果不一致:
Key:code
Expected:0
Actual:10004001
-------

用例<test_11>实际结果与预期结果不一致:
Key:code
Expected:0
Actual:10004001
-------

用例<test_12>实际结果与预期结果不一致:
Key:code
Expected:0
Actual:10004001
-------

用例<test_13>实际结果与预期结果不一致:
Key:code
Expected:0
Actual:10004001
-------

用例<test_14>实际结果与预期结果不一致:
Key:code
Expected:0
Actual:10004001
-------

用例<test_15>实际结果与预期结果不一致:
Key:code
Expected:0
Actual:10004001
-------

用例<test_16>实际结果与预期结果不一致:
Key:code
Expected:0
Actual:10004001
-------

用例<test_17>实际结果与预期结果不一致:
Key:code
Expected:0
Actual:10004001
-------

用例<test_18>实际结果与预期结果不一致:
Key:code
Expected:0
Actual:10004001
-------

用例<test_19>实际结果与预期结果不一致:
Key:code
Expected:0
Actual:10004001
-------

用例<test_20>实际结果与预期结果不一致:
Key:code
Expected:0
Actual:10004001
-------

用例<test_21>实际结果与预期结果不一致:
Key:code
Expected:0
Actual:10004001
-------

用例<test_22>实际结果与预期结果不一致:
Key:code
Expected:0
Actual:10004001
-------

用例<test_23>实际结果与预期结果不一致:
Key:code
Expected:0
Actual:10004001
-------

用例<test_25>实际结果与预期结果不一致:
Key:code
Expected:0
Actual:10004001
-------

用例<test_26>实际结果与预期结果不一致:
Key:code
Expected:0
Actual:10004001
-------

用例<test_27>实际结果与预期结果不一致:
Key:code
Expected:0
Actual:10004001
-------

用例<test_28>实际结果与预期结果不一致:
Key:code
Expected:0
Actual:10004001
-------

用例<test_29>实际结果与预期结果不一致:
Key:code
Expected:0
Actual:10004001
-------

用例<test_30>实际结果与预期结果不一致:
Key:code
Expected:0
Actual:10004001
-------

用例<test_31>实际结果与预期结果不一致:
Key:code
Expected:0
Actual:10004001
-------

用例<test_32>实际结果与预期结果不一致:
Key:code
Expected:0
Actual:10004001
-------

用例<test_33>实际结果与预期结果不一致:
Key:code
Expected:0
Actual:10004001
-------

用例<test_34>实际结果与预期结果不一致:
Key:code
Expected:0
Actual:10004001
-------

用例<test_35>实际结果与预期结果不一致:
Key:code
Expected:0
Actual:10004001
-------

用例<test_36>报错:
21-07-13 15:08-ERROR-HTTPConnectionPool(host='api-ad.op.dianhun.cn%20', port=80): Max retries exceeded with url: /api/oceanengine/advertiser/1680511210944525 (Caused by NewConnectionError('<urllib3.connection.HTTPConnection object at 0x000001BC7C887850>: Failed to establish a new connection: [Errno 11001] getaddrinfo failed'))
Traceback (most recent call last):
  File "C:\Python\Python39\lib\site-packages\urllib3\connection.py", line 169, in _new_conn
    conn = connection.create_connection(
  File "C:\Python\Python39\lib\site-packages\urllib3\util\connection.py", line 73, in create_connection
    for res in socket.getaddrinfo(host, port, family, socket.SOCK_STREAM):
  File "C:\Python\Python39\lib\socket.py", line 953, in getaddrinfo
    for res in _socket.getaddrinfo(host, port, family, type, proto, flags):
socket.gaierror: [Errno 11001] getaddrinfo failed

During handling of the above exception, another exception occurred:

Traceback (most recent call last):
  File "C:\Python\Python39\lib\site-packages\urllib3\connectionpool.py", line 699, in urlopen
    httplib_response = self._make_request(
  File "C:\Python\Python39\lib\site-packages\urllib3\connectionpool.py", line 394, in _make_request
    conn.request(method, url, **httplib_request_kw)
  File "C:\Python\Python39\lib\site-packages\urllib3\connection.py", line 234, in request
    super(HTTPConnection, self).request(method, url, body=body, headers=headers)
  File "C:\Python\Python39\lib\http\client.py", line 1253, in request
    self._send_request(method, url, body, headers, encode_chunked)
  File "C:\Python\Python39\lib\http\client.py", line 1299, in _send_request
    self.endheaders(body, encode_chunked=encode_chunked)
  File "C:\Python\Python39\lib\http\client.py", line 1248, in endheaders
    self._send_output(message_body, encode_chunked=encode_chunked)
  File "C:\Python\Python39\lib\http\client.py", line 1008, in _send_output
    self.send(msg)
  File "C:\Python\Python39\lib\http\client.py", line 948, in send
    self.connect()
  File "C:\Python\Python39\lib\site-packages\urllib3\connection.py", line 200, in connect
    conn = self._new_conn()
  File "C:\Python\Python39\lib\site-packages\urllib3\connection.py", line 181, in _new_conn
    raise NewConnectionError(
urllib3.exceptions.NewConnectionError: <urllib3.connection.HTTPConnection object at 0x000001BC7C887850>: Failed to establish a new connection: [Errno 11001] getaddrinfo failed

During handling of the above exception, another exception occurred:

Traceback (most recent call last):
  File "C:\Python\Python39\lib\site-packages\requests\adapters.py", line 439, in send
    resp = conn.urlopen(
  File "C:\Python\Python39\lib\site-packages\urllib3\connectionpool.py", line 755, in urlopen
    retries = retries.increment(
  File "C:\Python\Python39\lib\site-packages\urllib3\util\retry.py", line 574, in increment
    raise MaxRetryError(_pool, url, error or ResponseError(cause))
urllib3.exceptions.MaxRetryError: HTTPConnectionPool(host='api-ad.op.dianhun.cn%20', port=80): Max retries exceeded with url: /api/oceanengine/advertiser/1680511210944525 (Caused by NewConnectionError('<urllib3.connection.HTTPConnection object at 0x000001BC7C887850>: Failed to establish a new connection: [Errno 11001] getaddrinfo failed'))

During handling of the above exception, another exception occurred:

Traceback (most recent call last):
  File "D:\AutoTest\Auto\test\main\run_test.py", line 91, in test_run
    res = self.run_method.run_main(method, url, data, header, params=data)
  File "D:\AutoTest\Auto\test\util\runmethod.py", line 60, in run_main
    res = self.get_main(url, params, header, cookie)
  File "D:\AutoTest\Auto\test\util\runmethod.py", line 22, in get_main
    res = requests.get(url=url, params=params, headers=header, cookies=cookie, timeout=TIMEOUT)
  File "C:\Python\Python39\lib\site-packages\requests\api.py", line 76, in get
    return request('get', url, params=params, **kwargs)
  File "C:\Python\Python39\lib\site-packages\requests\api.py", line 61, in request
    return session.request(method=method, url=url, **kwargs)
  File "C:\Python\Python39\lib\site-packages\requests\sessions.py", line 542, in request
    resp = self.send(prep, **send_kwargs)
  File "C:\Python\Python39\lib\site-packages\requests\sessions.py", line 655, in send
    r = adapter.send(request, **kwargs)
  File "C:\Python\Python39\lib\site-packages\requests\adapters.py", line 516, in send
    raise ConnectionError(e, request=request)
requests.exceptions.ConnectionError: HTTPConnectionPool(host='api-ad.op.dianhun.cn%20', port=80): Max retries exceeded with url: /api/oceanengine/advertiser/1680511210944525 (Caused by NewConnectionError('<urllib3.connection.HTTPConnection object at 0x000001BC7C887850>: Failed to establish a new connection: [Errno 11001] getaddrinfo failed'))
HTTPConnectionPool(host='api-ad.op.dianhun.cn%20', port=80): Max retries exceeded with url: /api/oceanengine/advertiser/1680511210944525 (Caused by NewConnectionError('<urllib3.connection.HTTPConnection object at 0x000001BC7C887850>: Failed to establish a new connection: [Errno 11001] getaddrinfo failed'))
Traceback (most recent call last):
  File "C:\Python\Python39\lib\site-packages\urllib3\connection.py", line 169, in _new_conn
    conn = connection.create_connection(
  File "C:\Python\Python39\lib\site-packages\urllib3\util\connection.py", line 73, in create_connection
    for res in socket.getaddrinfo(host, port, family, socket.SOCK_STREAM):
  File "C:\Python\Python39\lib\socket.py", line 953, in getaddrinfo
    for res in _socket.getaddrinfo(host, port, family, type, proto, flags):
socket.gaierror: [Errno 11001] getaddrinfo failed

During handling of the above exception, another exception occurred:

Traceback (most recent call last):
  File "C:\Python\Python39\lib\site-packages\urllib3\connectionpool.py", line 699, in urlopen
    httplib_response = self._make_request(
  File "C:\Python\Python39\lib\site-packages\urllib3\connectionpool.py", line 394, in _make_request
    conn.request(method, url, **httplib_request_kw)
  File "C:\Python\Python39\lib\site-packages\urllib3\connection.py", line 234, in request
    super(HTTPConnection, self).request(method, url, body=body, headers=headers)
  File "C:\Python\Python39\lib\http\client.py", line 1253, in request
    self._send_request(method, url, body, headers, encode_chunked)
  File "C:\Python\Python39\lib\http\client.py", line 1299, in _send_request
    self.endheaders(body, encode_chunked=encode_chunked)
  File "C:\Python\Python39\lib\http\client.py", line 1248, in endheaders
    self._send_output(message_body, encode_chunked=encode_chunked)
  File "C:\Python\Python39\lib\http\client.py", line 1008, in _send_output
    self.send(msg)
  File "C:\Python\Python39\lib\http\client.py", line 948, in send
    self.connect()
  File "C:\Python\Python39\lib\site-packages\urllib3\connection.py", line 200, in connect
    conn = self._new_conn()
  File "C:\Python\Python39\lib\site-packages\urllib3\connection.py", line 181, in _new_conn
    raise NewConnectionError(
urllib3.exceptions.NewConnectionError: <urllib3.connection.HTTPConnection object at 0x000001BC7C887850>: Failed to establish a new connection: [Errno 11001] getaddrinfo failed

During handling of the above exception, another exception occurred:

Traceback (most recent call last):
  File "C:\Python\Python39\lib\site-packages\requests\adapters.py", line 439, in send
    resp = conn.urlopen(
  File "C:\Python\Python39\lib\site-packages\urllib3\connectionpool.py", line 755, in urlopen
    retries = retries.increment(
  File "C:\Python\Python39\lib\site-packages\urllib3\util\retry.py", line 574, in increment
    raise MaxRetryError(_pool, url, error or ResponseError(cause))
urllib3.exceptions.MaxRetryError: HTTPConnectionPool(host='api-ad.op.dianhun.cn%20', port=80): Max retries exceeded with url: /api/oceanengine/advertiser/1680511210944525 (Caused by NewConnectionError('<urllib3.connection.HTTPConnection object at 0x000001BC7C887850>: Failed to establish a new connection: [Errno 11001] getaddrinfo failed'))

During handling of the above exception, another exception occurred:

Traceback (most recent call last):
  File "D:\AutoTest\Auto\test\main\run_test.py", line 91, in test_run
    res = self.run_method.run_main(method, url, data, header, params=data)
  File "D:\AutoTest\Auto\test\util\runmethod.py", line 60, in run_main
    res = self.get_main(url, params, header, cookie)
  File "D:\AutoTest\Auto\test\util\runmethod.py", line 22, in get_main
    res = requests.get(url=url, params=params, headers=header, cookies=cookie, timeout=TIMEOUT)
  File "C:\Python\Python39\lib\site-packages\requests\api.py", line 76, in get
    return request('get', url, params=params, **kwargs)
  File "C:\Python\Python39\lib\site-packages\requests\api.py", line 61, in request
    return session.request(method=method, url=url, **kwargs)
  File "C:\Python\Python39\lib\site-packages\requests\sessions.py", line 542, in request
    resp = self.send(prep, **send_kwargs)
  File "C:\Python\Python39\lib\site-packages\requests\sessions.py", line 655, in send
    r = adapter.send(request, **kwargs)
  File "C:\Python\Python39\lib\site-packages\requests\adapters.py", line 516, in send
    raise ConnectionError(e, request=request)
requests.exceptions.ConnectionError: HTTPConnectionPool(host='api-ad.op.dianhun.cn%20', port=80): Max retries exceeded with url: /api/oceanengine/advertiser/1680511210944525 (Caused by NewConnectionError('<urllib3.connection.HTTPConnection object at 0x000001BC7C887850>: Failed to establish a new connection: [Errno 11001] getaddrinfo failed'))

用例<test_37>实际结果与预期结果不一致:
Key:code
Expected:10004003
Actual:10004001
-------

用例<test_38>实际结果与预期结果不一致:
Key:code
Expected:0
Actual:10004001
-------

用例<test_40>实际结果与预期结果不一致:
Key:code
Expected:0
Actual:10004001
-------

用例<test_41>实际结果与预期结果不一致:
Key:code
Expected:0
Actual:10004001
-------

用例<test_42>实际结果与预期结果不一致:
Key:code
Expected:0
Actual:10004001
-------

用例<test_43>实际结果与预期结果不一致:
Key:code
Expected:0
Actual:10004001
-------

用例<test_44>实际结果与预期结果不一致:
Key:code
Expected:0
Actual:10004001
-------

用例<test_45>实际结果与预期结果不一致:
Key:code
Expected:0
Actual:10004001
-------

用例<test_46>实际结果与预期结果不一致:
Key:code
Expected:0
Actual:10004001
-------

用例<test_47>实际结果与预期结果不一致:
Key:code
Expected:0
Actual:10004001
-------

用例<test_48>实际结果与预期结果不一致:
Key:code
Expected:0
Actual:10004001
-------

用例<test_49>实际结果与预期结果不一致:
Key:code
Expected:0
Actual:10004001
-------

用例<test_50>实际结果与预期结果不一致:
Key:code
Expected:0
Actual:10004001
-------

用例<test_51>实际结果与预期结果不一致:
Key:code
Expected:0
Actual:10004001
-------

用例<test_52>实际结果与预期结果不一致:
Key:code
Expected:0
Actual:10004001
-------

用例<test_53>实际结果与预期结果不一致:
Key:code
Expected:0
Actual:10004001
-------

用例<test_54>实际结果与预期结果不一致:
Key:code
Expected:0
Actual:10004001
-------

用例<test_55>实际结果与预期结果不一致:
Key:code
Expected:0
Actual:10004001
-------

用例<test_56>实际结果与预期结果不一致:
Key:code
Expected:0
Actual:10004001
-------

用例<test_57>实际结果与预期结果不一致:
Key:code
Expected:0
Actual:10004001
-------

用例<test_58>实际结果与预期结果不一致:
Key:code
Expected:0
Actual:10004001
-------

用例<test_59>实际结果与预期结果不一致:
Key:code
Expected:0
Actual:10004001
-------

用例<test_60>实际结果与预期结果不一致:
Key:code
Expected:0
Actual:10004001
-------

用例<test_61>实际结果与预期结果不一致:
Key:code
Expected:0
Actual:10004001
-------

用例<test_62>实际结果与预期结果不一致:
Key:code
Expected:0
Actual:10004001
-------

用例<test_63>实际结果与预期结果不一致:
Key:code
Expected:0
Actual:10004001
-------

用例<test_64>实际结果与预期结果不一致:
Key:code
Expected:0
Actual:10004001
-------

用例<test_65>实际结果与预期结果不一致:
Key:code
Expected:0
Actual:10004001
-------

用例<test_66>实际结果与预期结果不一致:
Key:code
Expected:0
Actual:10004001
-------

用例<test_67>实际结果与预期结果不一致:
Key:code
Expected:0
Actual:10004001
-------

用例<test_68>实际结果与预期结果不一致:
Key:code
Expected:0
Actual:10004001
-------

用例<test_69>实际结果与预期结果不一致:
Key:code
Expected:0
Actual:10004001
-------

用例<test_70>实际结果与预期结果不一致:
Key:code
Expected:0
Actual:10004001
-------

用例<test_71>实际结果与预期结果不一致:
Key:code
Expected:0
Actual:10004001
-------

用例<test_72>实际结果与预期结果不一致:
Key:code
Expected:0
Actual:10004001
-------

用例<test_73>实际结果与预期结果不一致:
Key:code
Expected:0
Actual:10004001
-------

用例<test_74>实际结果与预期结果不一致:
Key:code
Expected:0
Actual:10004001
-------

用例<test_75>实际结果与预期结果不一致:
Key:code
Expected:0
Actual:10004001
-------

用例<test_76>实际结果与预期结果不一致:
Key:code
Expected:0
Actual:10004001
-------

用例<test_77>实际结果与预期结果不一致:
Key:code
Expected:0
Actual:10004001
-------

用例<test_78>实际结果与预期结果不一致:
Key:code
Expected:0
Actual:10004001
-------

用例<test_79>实际结果与预期结果不一致:
Key:code
Expected:0
Actual:10004001
-------

用例<test_80>实际结果与预期结果不一致:
Key:code
Expected:0
Actual:10004001
-------

用例<test_81>实际结果与预期结果不一致:
Key:code
Expected:0
Actual:10004001
-------

用例<test_82>实际结果与预期结果不一致:
Key:code
Expected:0
Actual:10004001
-------

用例<test_83>实际结果与预期结果不一致:
Key:code
Expected:0
Actual:10004001
-------

用例<test_84>实际结果与预期结果不一致:
Key:code
Expected:0
Actual:10004001
-------

用例<test_85>实际结果与预期结果不一致:
Key:code
Expected:0
Actual:10004001
-------

用例<test_86>实际结果与预期结果不一致:
Key:code
Expected:0
Actual:10004001
-------

用例<test_87>实际结果与预期结果不一致:
Key:code
Expected:0
Actual:10004001
-------

用例<test_88>实际结果与预期结果不一致:
Key:code
Expected:0
Actual:10004001
-------

用例<test_89>实际结果与预期结果不一致:
Key:code
Expected:0
Actual:10004001
-------

用例<test_90>实际结果与预期结果不一致:
Key:code
Expected:0
Actual:10004001
-------

用例<test_91>实际结果与预期结果不一致:
Key:code
Expected:0
Actual:10004001
-------

用例<test_92>实际结果与预期结果不一致:
Key:code
Expected:0
Actual:10004001
-------

用例<test_93>实际结果与预期结果不一致:
Key:code
Expected:0
Actual:10004001
-------

用例<test_94>实际结果与预期结果不一致:
Key:code
Expected:0
Actual:10004001
-------

用例<test_95>实际结果与预期结果不一致:
Key:code
Expected:0
Actual:10004001
-------

用例<test_96>实际结果与预期结果不一致:
Key:code
Expected:0
Actual:10004001
-------

用例<test_97>实际结果与预期结果不一致:
Key:code
Expected:0
Actual:10004001
-------

用例<test_98>实际结果与预期结果不一致:
Key:code
Expected:0
Actual:10004001
-------

用例<test_99>实际结果与预期结果不一致:
Key:code
Expected:0
Actual:10004001
-------

用例<test_100>实际结果与预期结果不一致:
Key:code
Expected:0
Actual:10004001
-------

用例<test_101>实际结果与预期结果不一致:
Key:code
Expected:0
Actual:10004001
-------

用例<test_102>实际结果与预期结果不一致:
Key:code
Expected:0
Actual:10004001
-------

用例<test_103>实际结果与预期结果不一致:
Key:code
Expected:0
Actual:10004001
-------

用例<test_104>实际结果与预期结果不一致:
Key:code
Expected:0
Actual:10004001
-------

用例<test_105>实际结果与预期结果不一致:
Key:code
Expected:0
Actual:10004001
-------

用例<test_106>实际结果与预期结果不一致:
Key:code
Expected:0
Actual:10004001
-------

用例<test_107>实际结果与预期结果不一致:
Key:code
Expected:0
Actual:10004001
-------

用例<test_108>实际结果与预期结果不一致:
Key:code
Expected:0
Actual:10004001
-------

用例<test_109>实际结果与预期结果不一致:
Key:code
Expected:0
Actual:10004001
-------

用例<test_110>实际结果与预期结果不一致:
Key:code
Expected:0
Actual:10004001
-------

用例<test_111>实际结果与预期结果不一致:
Key:code
Expected:0
Actual:10004001
-------

用例<test_112>实际结果与预期结果不一致:
Key:code
Expected:0
Actual:10004001
-------

用例<test_113>实际结果与预期结果不一致:
Key:code
Expected:0
Actual:10004001
-------

用例<test_114>实际结果与预期结果不一致:
Key:code
Expected:0
Actual:10004001
-------

用例<test_115>实际结果与预期结果不一致:
Key:code
Expected:0
Actual:10004001
-------

用例<test_116>实际结果与预期结果不一致:
Key:code
Expected:0
Actual:10004001
-------

用例<test_117>实际结果与预期结果不一致:
Key:code
Expected:0
Actual:10004001
-------

用例<test_118>实际结果与预期结果不一致:
Key:code
Expected:0
Actual:10004001
-------

用例<test_119>实际结果与预期结果不一致:
Key:code
Expected:0
Actual:10004001
-------

用例<test_120>实际结果与预期结果不一致:
Key:code
Expected:0
Actual:10004001
-------

用例<test_121>实际结果与预期结果不一致:
Key:code
Expected:0
Actual:10004001
-------

用例<test_122>实际结果与预期结果不一致:
Key:code
Expected:0
Actual:10004001
-------

用例<test_123>实际结果与预期结果不一致:
Key:code
Expected:0
Actual:10004001
-------

用例<test_124>实际结果与预期结果不一致:
Key:code
Expected:0
Actual:10004001
-------

用例<test_125>实际结果与预期结果不一致:
Key:code
Expected:0
Actual:10004001
-------

用例<test_126>实际结果与预期结果不一致:
Key:code
Expected:0
Actual:10004001
-------

用例<test_127>实际结果与预期结果不一致:
Key:code
Expected:0
Actual:10004001
-------

用例<test_128>实际结果与预期结果不一致:
Key:code
Expected:0
Actual:10004001
-------

用例<test_129>实际结果与预期结果不一致:
Key:code
Expected:0
Actual:10004001
-------

用例<test_130>实际结果与预期结果不一致:
Key:code
Expected:0
Actual:10004001
-------

用例<test_131>实际结果与预期结果不一致:
Key:code
Expected:0
Actual:10004001
-------

用例<test_132>实际结果与预期结果不一致:
Key:code
Expected:0
Actual:10004001
-------



<---------------------------Excel Document:../case/test1.xlsx--------------------------->

<---------------------------Excel SheetName:Sheet1--------------------------->


用例<test_02>实际结果与预期结果不一致:
Key:a.system.errror.type
Expected:9997
Actual:0
-------
