


<---------------------------Excel Document:../case/test2.xlsx--------------------------->

<---------------------------Excel SheetName:Sheet1--------------------------->


用例<test_02>实际结果与预期结果不一致:
Key:a.system.errror.type
Expected:9997
Actual:9998
-------
