


<---------------------------Excel Document:../case/test1.xlsx--------------------------->

<---------------------------Excel SheetName:Sheet1--------------------------->




<---------------------------Excel Document:../case/test2.xlsx--------------------------->

<---------------------------Excel SheetName:Sheet1--------------------------->




<---------------------------Excel Document:../case/test3.xlsx--------------------------->

<---------------------------Excel SheetName:Sheet1--------------------------->


用例<test_01>实际结果与预期结果不一致:
Key:a.system.verifySwitch.status
Expected:0
Actual:value is not alive
-------
