


<---------------------------Excel Document:../case/test1.xlsx--------------------------->

<---------------------------Excel SheetName:Sheet1--------------------------->




<---------------------------Excel Document:../case/test2.xlsx--------------------------->

<---------------------------Excel SheetName:Sheet1--------------------------->

