


<---------------------------Excel Document:../case/APIAuto\ssgd_1000001.xlsx--------------------------->

<---------------------------Excel SheetName:ssgd_1000001--------------------------->


用例<2>实际结果与预期结果不一致:
Key:a.system.verifySwitch.status
Expected:0
Actual:value is not alive
-------

用例<3>实际结果与预期结果不一致:
Key:a.system.error.msg
Expected:
Actual:value is not alive
-------



<---------------------------Excel Document:../case/APIAuto\ssgd_1000002.xlsx--------------------------->

<---------------------------Excel SheetName:ssgd_1000002--------------------------->




<---------------------------Excel Document:../case/test1.xlsx--------------------------->

<---------------------------Excel SheetName:Sheet1--------------------------->




<---------------------------Excel Document:../case/test2.xlsx--------------------------->

<---------------------------Excel SheetName:Sheet1--------------------------->




<---------------------------Excel Document:../case/test3.xlsx--------------------------->

<---------------------------Excel SheetName:Sheet1--------------------------->

