


<---------------------------Excel Document:../case/APIAuto\ssgd_1000001.xlsx--------------------------->

<---------------------------Excel SheetName:ssgd_1000001--------------------------->


用例<2>实际结果与预期结果不一致:
Key:a.system.verifySwitch.status
Expected:0
Actual:value is not alive
-------
